﻿id,DEPARTMENT_NAME,FACULTY_ID,created_at,updated_at
4,العلوم الفيزيائية,1,9/26/2018 0:34,9/26/2018 0:34
14,العلوم البيولوجية,1,9/26/2018 0:34,9/26/2018 0:34
22,العلوم الجيولوجية,1,9/26/2018 0:34,9/26/2018 0:34
26,العلوم البيئية,1,9/26/2018 0:34,9/26/2018 0:34
28,الهندسة المدنية,2,9/26/2018 0:35,9/26/2018 0:35
29,الهندسة الميكانيكية,2,9/26/2018 0:35,9/26/2018 0:35
36,الهندسة الكهربائية,2,9/26/2018 0:35,9/26/2018 0:35
41,هندسة التعدين والفلزات,2,9/26/2018 0:35,9/26/2018 0:35
42,الهندسة المعمارية,2,9/26/2018 0:35,9/26/2018 0:35
55,الإنتاج الزراعي,3,9/26/2018 0:35,9/26/2018 0:35
61,برنامج الصيدلة الإكلينيكية,5,9/26/2018 0:37,9/26/2018 0:37
64,برنامج الدراسة باللغة العربية,7,9/26/2018 0:38,9/26/2018 0:38
70,برنامج الدراسة باللغة الانجليزية,7,9/26/2018 0:38,9/26/2018 0:38
73,اللغة العربية,8,9/26/2018 0:39,9/26/2018 0:39
74,اللغة الإنجليزية,8,9/26/2018 0:39,9/26/2018 0:39
75,اللغة الفرنسية,8,9/26/2018 0:39,9/26/2018 0:39
76,الدراسات الاجتماعيه,8,9/26/2018 0:39,9/26/2018 0:39
79,علم النفس,8,9/26/2018 0:39,9/26/2018 0:39
80,الرياضيات,8,9/26/2018 0:39,9/26/2018 0:39
81,الفيزياء و الكيمياء,8,9/26/2018 0:39,9/26/2018 0:39
84,العلوم البيولوجية والجيولوجية,8,9/26/2018 0:39,9/26/2018 0:39
85,الطفولة,8,9/26/2018 0:39,9/26/2018 0:39
86,التعليم الاساسى,8,9/26/2018 0:39,9/26/2018 0:39
95,تدريس التربية الرياضية,10,9/26/2018 0:39,9/26/2018 0:39
96,التدريب الرياضى,10,9/26/2018 0:39,9/26/2018 0:39
97,الإدارة الرياضية,10,9/26/2018 0:39,9/26/2018 0:39
98,تدريس,10,9/26/2018 0:39,9/26/2018 0:39
101,اللغة العربية,12,9/26/2018 0:41,9/26/2018 0:41
102,اللغة الإنجليزية,12,9/26/2018 0:41,9/26/2018 0:41
103,اللغة الفرنسية,12,9/26/2018 0:41,9/26/2018 0:41
104,الدراسات الاجتماعيه,12,9/26/2018 0:41,9/26/2018 0:41
107,علم النفس,12,9/26/2018 0:41,9/26/2018 0:41
108,الرياضيات,12,9/26/2018 0:41,9/26/2018 0:41
109,الفيزياء و الكيمياء,12,9/26/2018 0:41,9/26/2018 0:41
112,العلوم البيولوجية والجيولوجية,12,9/26/2018 0:41,9/26/2018 0:41
113,الطفولة,12,9/26/2018 0:41,9/26/2018 0:41
114,التعليم الاساسى,12,9/26/2018 0:41,9/26/2018 0:41
123,التربية الموسيقية,14,9/26/2018 0:41,9/26/2018 0:41
124,التربية الفنية,14,9/26/2018 0:41,9/26/2018 0:41
125,الاقتصاد المنزلي,14,9/26/2018 0:41,9/26/2018 0:41
126,تكنولوجيا,14,9/26/2018 0:41,9/26/2018 0:41
128,اللغة العربية وآدابها,15,9/26/2018 0:42,9/26/2018 0:42
129,اللغة الإنجليزية وآدابها,15,9/26/2018 0:42,9/26/2018 0:42
130,اللغة الفرنسية وآدابها,15,9/26/2018 0:42,9/26/2018 0:42
131,التاريخ,15,9/26/2018 0:42,9/26/2018 0:42
132,الجغرافيا,15,9/26/2018 0:42,9/26/2018 0:42
134,علم النفس,15,9/26/2018 0:42,9/26/2018 0:42
135,اللغات الشرقية وآدابها,15,9/26/2018 0:42,9/26/2018 0:42
138,الاجتماع,15,9/26/2018 0:42,9/26/2018 0:42
139,الاعلام,15,9/26/2018 0:42,9/26/2018 0:42
140,الفلسفة,15,9/26/2018 0:42,9/26/2018 0:42
141,المكتبات والوثائق والمعلومات,15,9/26/2018 0:42,9/26/2018 0:42
143,الآثار,15,9/26/2018 0:42,9/26/2018 0:42
147,علوم الحاسب,16,9/26/2018 0:42,9/26/2018 0:42
148,نظم المعلومات,16,9/26/2018 0:42,9/26/2018 0:42
150,تكنولوجيا المعلومات,16,9/26/2018 0:42,9/26/2018 0:42
167,قسم الشريعة الاسلامية,9,9/26/2018 0:39,9/26/2018 0:39
171,التشريح والهستولوجيا,6,9/26/2018 0:38,9/26/2018 0:38
172,الباثولوجيا والباثولوجيا الاكلينيكية,6,9/26/2018 0:38,9/26/2018 0:38
173,قسم القانون الخاص,9,9/26/2018 0:39,9/26/2018 0:39
174,قسم القانون المدني,9,9/26/2018 0:39,9/26/2018 0:39
175,قسم القانون التجاري,9,9/26/2018 0:39,9/26/2018 0:39
176,قسم القانون العام,9,9/26/2018 0:39,9/26/2018 0:39
177,قسم القانون الجنائى,9,9/26/2018 0:39,9/26/2018 0:39
178,قسم القانون الدولي العام,9,9/26/2018 0:39,9/26/2018 0:39
179,قسم المالية العامة,9,9/26/2018 0:39,9/26/2018 0:39
182,الصيدلانيات,5,9/26/2018 0:37,9/26/2018 0:37
183,العقاقير,5,9/26/2018 0:37,9/26/2018 0:37
184,الكيمياء الصيدلية الطبية,5,9/26/2018 0:37,9/26/2018 0:37
185,الكيمياء العضوية الصيدلية,5,9/26/2018 0:37,9/26/2018 0:37
186,الكيمياء التحليلية الصيدلية,5,9/26/2018 0:37,9/26/2018 0:37
187,الصيدلة الصناعية,5,9/26/2018 0:37,9/26/2018 0:37
188,المراقبة الصحية علي الأغذية,6,9/26/2018 0:38,9/26/2018 0:38
348,الاراضي والمياة,3,9/26/2018 0:35,9/26/2018 0:35
349,البساتين,3,9/26/2018 0:35,9/26/2018 0:35
350,برنامج الانتاج الحيواني والدواجن,3,9/26/2018 0:35,9/26/2018 0:35
351,الاقتصاد الزراعي,3,9/26/2018 0:35,9/26/2018 0:35
352,الالبان,3,9/26/2018 0:35,9/26/2018 0:35
353,أمراض النبات,3,9/26/2018 0:35,9/26/2018 0:35
354,وقاية النبات,3,9/26/2018 0:35,9/26/2018 0:35
355,الوراثة,3,9/26/2018 0:35,9/26/2018 0:35
356,المحاصيل,3,9/26/2018 0:35,9/26/2018 0:35
357,علوم وتكنولوجيا الاغذية,3,9/26/2018 0:35,9/26/2018 0:35
358,المجتمع الريفى والارشاد الزراعى,3,9/26/2018 0:35,9/26/2018 0:35
407,المناهج وطرق التدريس,8,9/26/2018 0:39,9/26/2018 0:39
408,تربية الطفل,8,9/26/2018 0:39,9/26/2018 0:39
409,علم النفس التربوى,8,9/26/2018 0:39,9/26/2018 0:39
410,أصول التربية,8,9/26/2018 0:39,9/26/2018 0:39
411,علم النفس التعليمى,8,9/26/2018 0:39,9/26/2018 0:39
459,تكنولوجيا التعليم,8,9/26/2018 0:39,9/26/2018 0:39
460,التعليم الصناعى,8,9/26/2018 0:39,9/26/2018 0:39
471,الصحة النفسية,8,9/26/2018 0:39,9/26/2018 0:39
489,تغذية الحيوان والتغذية الإكلينيكية,6,9/26/2018 0:38,9/26/2018 0:38
490,صحة الحيوان,6,9/26/2018 0:38,9/26/2018 0:38
491,الطب الشرعى والسموم البيطرية,6,9/26/2018 0:38,9/26/2018 0:38
492,طب الحيوان,6,9/26/2018 0:38,9/26/2018 0:38
493,جراحة الحيوان,6,9/26/2018 0:38,9/26/2018 0:38
494,التوليد والتناسليات,6,9/26/2018 0:38,9/26/2018 0:38
495,أمراض الدواجن,6,9/26/2018 0:38,9/26/2018 0:38
524,الرياضيات,1,9/26/2018 0:34,9/26/2018 0:34
533,أصول التربية الرياضية والترويح,10,9/26/2018 0:39,9/26/2018 0:39
534,الألعاب,10,9/26/2018 0:39,9/26/2018 0:39
535,التدريب الرياضى وعلوم الحركة,10,9/26/2018 0:39,9/26/2018 0:39
536,التمرينات والجمباز,10,9/26/2018 0:39,9/26/2018 0:39
537,العلوم التربوية والنفسية الرياضية,10,9/26/2018 0:39,9/26/2018 0:39
538,المنازلات والرياضات المائية,10,9/26/2018 0:39,9/26/2018 0:39
539,علوم الصحة الرياضية,10,9/26/2018 0:39,9/26/2018 0:39
540,مسابقات الميدان والمضمار,10,9/26/2018 0:39,9/26/2018 0:39
541,مناهج وطرق التدريس والتدريب,10,9/26/2018 0:39,9/26/2018 0:39
558,المواد الصحية,10,9/26/2018 0:40,9/26/2018 0:40
586,الكيمياء,1,9/26/2018 0:34,9/26/2018 0:34
587,الهندسة المدنية,2,9/26/2018 0:35,9/26/2018 0:35
588,قسم الهندسة الميكانيكية,2,9/26/2018 0:35,9/26/2018 0:35
589,قسم الهندسة الكهربية,2,9/26/2018 0:35,9/26/2018 0:35
590,قسم هندسة التعدين والفلزات,2,9/26/2018 0:35,9/26/2018 0:35
591,قسم الهندسة المعمارية,2,9/26/2018 0:35,9/26/2018 0:35
737,قسم الشريعة الاسلامية,9,9/26/2018 0:39,9/26/2018 0:39
738,قسم القانون الخاص,9,9/26/2018 0:39,9/26/2018 0:39
739,قسم القانون المدنى,9,9/26/2018 0:39,9/26/2018 0:39
740,قسم القانون التجارى,9,9/26/2018 0:39,9/26/2018 0:39
741,قسم القانون العام,9,9/26/2018 0:39,9/26/2018 0:39
742,قسم القانون الجنائى,9,9/26/2018 0:39,9/26/2018 0:39
743,قسم القانون الدولى,9,9/26/2018 0:39,9/26/2018 0:39
744,قسم المالية العامة والتشريع المالى والقانون الاقتصادى,9,9/26/2018 0:39,9/26/2018 0:39
831,الكيمياء الصيدلية,5,9/26/2018 0:37,9/26/2018 0:37
862,إدارة التمريض,11,9/26/2018 0:40,9/26/2018 0:40
863,إدارة خدمات التمريض,11,9/26/2018 0:40,9/26/2018 0:40
864,التمريض النفسى والعقلى والصحة النفسية,11,9/26/2018 0:40,9/26/2018 0:40
865,تمريض الحالات الحرجة,11,9/26/2018 0:40,9/26/2018 0:40
866,تمريض الصحة العامة,11,9/26/2018 0:40,9/26/2018 0:40
869,تمريض البالغين,11,9/26/2018 0:40,9/26/2018 0:40
870,تمريض صحة المجتمع,11,9/26/2018 0:40,9/26/2018 0:40
871,تمريض الأطفال والأطفال المبتسرين,11,9/26/2018 0:40,9/26/2018 0:40
872,تمريض المسنين,11,9/26/2018 0:40,9/26/2018 0:40
873,تمريض الولادة وأمراض النساء,11,9/26/2018 0:40,9/26/2018 0:40
874,تمريض باطنى وجراحى,11,9/26/2018 0:40,9/26/2018 0:40
953,قسم أصول التربية,8,9/26/2018 0:39,9/26/2018 0:39
955,قسم المناهج وطرق التدريس,8,9/26/2018 0:39,9/26/2018 0:39
956,قسم علم النفس التربوي,8,9/26/2018 0:39,9/26/2018 0:39
957,قسم التربية المقارنة والإدارة التعليمية,8,9/26/2018 0:39,9/26/2018 0:39
958,قسم الصحة النفسية,8,9/26/2018 0:39,9/26/2018 0:39
959,قسم تربية الطفل,8,9/26/2018 0:39,9/26/2018 0:39
960,قسم التربية الخاصة,8,9/26/2018 0:39,9/26/2018 0:39
979,إدارة التمريض,11,9/26/2018 0:40,9/26/2018 0:40
984,تمريض الأطفال والأطفال المبتسرين,11,9/26/2018 0:40,9/26/2018 0:40
985,تمريض بالغين (باطنى وجراحى ),11,9/26/2018 0:40,9/26/2018 0:40
986,التمريض النفسي والصحة النفسية,11,9/26/2018 0:40,9/26/2018 0:40
987,تمريض صحة المجتمع,11,9/26/2018 0:40,9/26/2018 0:40
988,تمريض النساء والتوليد,11,9/26/2018 0:40,9/26/2018 0:40
990,تمريض الحالات الحرجة,11,9/26/2018 0:40,9/26/2018 0:40
991,تمريض المسنين,11,9/26/2018 0:40,9/26/2018 0:40
992,إدارة خدمات التمريض,11,9/26/2018 0:40,9/26/2018 0:40
993,تمريض الولادة وأمراض النساء,11,9/26/2018 0:40,9/26/2018 0:40
994,التمريض النفسي والعقلي,11,9/26/2018 0:40,9/26/2018 0:40
996,تمريض الأطفال,11,9/26/2018 0:40,9/26/2018 0:40
998,قسم التربية المقارنة والإدارة التعليمية,8,9/26/2018 0:38,9/26/2018 0:38
999,قسم التربية الخاصة,8,9/26/2018 0:38,9/26/2018 0:38
1001,قسم الفنون,8,9/26/2018 0:38,9/26/2018 0:38
1002,الجيولوجيا,1,9/26/2018 0:34,9/26/2018 0:34
1003,الفيزياء,1,9/26/2018 0:34,9/26/2018 0:34
1004,النبات,1,9/26/2018 0:34,9/26/2018 0:34
1005,علم الحيوان,1,9/26/2018 0:34,9/26/2018 0:34
1006,المناهج وطرق التدريس,12,9/26/2018 0:40,9/26/2018 0:40
1008,علم النفس التربوى,12,9/26/2018 0:40,9/26/2018 0:40
1009,أصول التربية,12,9/26/2018 0:40,9/26/2018 0:40
1010,علم النفس التعليمى,12,9/26/2018 0:40,9/26/2018 0:40
1011,تكنولوجيا التعليم,12,9/26/2018 0:41,9/26/2018 0:41
1012,التعليم الصناعى,12,9/26/2018 0:41,9/26/2018 0:41
1013,الصحة النفسية,12,9/26/2018 0:41,9/26/2018 0:41
1014,قسم التربية المقارنة والإدارة التعليمية,12,9/26/2018 0:41,9/26/2018 0:41
1015,قسم التربية الخاصة,12,9/26/2018 0:41,9/26/2018 0:41
1016,قسم اللغة العربية والدراسات الإسلامية,12,9/26/2018 0:41,9/26/2018 0:41
1017,قسم الفنون,12,9/26/2018 0:41,9/26/2018 0:41
1029,قسم العلوم والرياضيات,12,9/26/2018 0:41,9/26/2018 0:41
1030,أشعة الاورام التشخيصية,18,9/26/2018 0:42,9/26/2018 0:42
1031,الأشعة العلاجية والطب النووى,18,9/26/2018 0:42,9/26/2018 0:42
1032,الإحصاء الطبى ووبائيات السرطان,18,9/26/2018 0:42,9/26/2018 0:42
1033,الباثولوجيا الإكلينيكية,18,9/26/2018 0:42,9/26/2018 0:42
1034,التخدير والإنعاش وعلاج الالم,18,9/26/2018 0:42,9/26/2018 0:42
1035,الجراحة العامة,18,9/26/2018 0:42,9/26/2018 0:42
1036,جراحة الاورام,18,9/26/2018 0:42,9/26/2018 0:42
1037,طب أورام الأطفال,18,9/26/2018 0:42,9/26/2018 0:42
1039,الباثولوجيا الإكلينيكية للآورام,18,9/26/2018 0:43,9/26/2018 0:43
1040,طب الاورام,18,9/26/2018 0:43,9/26/2018 0:43
1048,طب الأطفال,4,9/26/2018 0:36,9/26/2018 0:36
1049,الصحة العامة و طب المجتمع,4,9/26/2018 0:36,9/26/2018 0:36
1050,الجراحة العامة,4,9/26/2018 0:36,9/26/2018 0:36
1051,التخدير والعناية المركزة,4,9/26/2018 0:36,9/26/2018 0:36
1052,الباثولوجيا الإكلينيكية,4,9/26/2018 0:36,9/26/2018 0:36
1053,الباثولوجيا,4,9/26/2018 0:36,9/26/2018 0:36
1054,الأمراض الباطنة,4,9/26/2018 0:36,9/26/2018 0:36
1055,الأشعة التشخيصية,4,9/26/2018 0:36,9/26/2018 0:36
1056,علاج الأورام  و الطب النووي,4,9/26/2018 0:36,9/26/2018 0:36
1061,الصحة و الأمراض المشتركة,6,9/26/2018 0:38,9/26/2018 0:38
1064,امراض الطيور و الأرانب,6,9/26/2018 0:38,9/26/2018 0:38
1092,التخطيط الإجتماعى,13,9/26/2018 0:41,9/26/2018 0:41
1093,تنظيم المجتمع,13,9/26/2018 0:41,9/26/2018 0:41
1094,خدمة الجماعة,13,9/26/2018 0:41,9/26/2018 0:41
1095,خدمة الفرد,13,9/26/2018 0:41,9/26/2018 0:41
1096,مجالات الخدمة الإجتماعية,13,9/26/2018 0:41,9/26/2018 0:41
1103,التشريح الآدمي وعلم الأجنة,4,9/26/2018 0:36,9/26/2018 0:36
1104,الهستولوجيا,4,9/26/2018 0:36,9/26/2018 0:36
1105,الفسيولوجيا الطبية,4,9/26/2018 0:36,9/26/2018 0:36
1106,الكيمياء الحيوية الطبية,4,9/26/2018 0:36,9/26/2018 0:36
1107,الفارماكولوجيا الطبية,4,9/26/2018 0:36,9/26/2018 0:36
1108,المكروبيولوجيا الطبية والمناعة,4,9/26/2018 0:36,9/26/2018 0:36
1109,الطفيليات الطبية,4,9/26/2018 0:36,9/26/2018 0:36
1110,طب و جراحة العيون,4,9/26/2018 0:36,9/26/2018 0:36
1111,الأذن و الأنف و الحنجرة,4,9/26/2018 0:36,9/26/2018 0:36
1112,الطب الشرعي و السموم الإكلينيكية,4,9/26/2018 0:36,9/26/2018 0:36
1114,طب المناطق الحارة و الجهاز الهضمي,4,9/26/2018 0:36,9/26/2018 0:36
1115,الأمراض الصدرية,4,9/26/2018 0:36,9/26/2018 0:36
1116,الأمراض العصبية والنفسية,4,9/26/2018 0:36,9/26/2018 0:36
1117,طب القلب و الأوعية الدموية,4,9/26/2018 0:36,9/26/2018 0:36
1118,الأمراض الجلدية والتناسلية والذكورة,4,9/26/2018 0:36,9/26/2018 0:36
1119,الطب الطبيعي و الروماتيزم و التأهيل,4,9/26/2018 0:36,9/26/2018 0:36
1120,أمراض النساء و التوليد,4,9/26/2018 0:36,9/26/2018 0:36
1122,جراحة العظام,4,9/26/2018 0:36,9/26/2018 0:36
1123,جراحة المسالك البولية والتناسلية,4,9/26/2018 0:36,9/26/2018 0:36
1124,جراحة المخ و الأعصاب,4,9/26/2018 0:36,9/26/2018 0:36
1125,جراحة التجميل,4,9/26/2018 0:36,9/26/2018 0:36
1126,جراحة القلب و الصدر,4,9/26/2018 0:36,9/26/2018 0:36
1127,جراحة الأوعية الدموية,4,9/26/2018 0:36,9/26/2018 0:36
1143,العلوم السياسية,7,9/26/2018 0:38,9/26/2018 0:38
1144,الاقتصاد و المالية العامة,7,9/26/2018 0:38,9/26/2018 0:38
1145,الإحصاء و الرياضة و التأمين,7,9/26/2018 0:38,9/26/2018 0:38
1146,إدارة الأعمال,7,9/26/2018 0:38,9/26/2018 0:38
1147,المحاسبة,7,9/26/2018 0:38,9/26/2018 0:38
1311,أمراض النبات,3,9/26/2018 0:35,9/26/2018 0:35
1313,الأراضى والمياه,3,9/26/2018 0:35,9/26/2018 0:35
1316,الإقتصاد الزراعى,3,9/26/2018 0:35,9/26/2018 0:35
1319,الألبان,3,9/26/2018 0:35,9/26/2018 0:35
1322,الانتاج الحيوانى و الدواجن,3,9/26/2018 0:35,9/26/2018 0:35
1327,البساتين,3,9/26/2018 0:35,9/26/2018 0:35
1334,علوم وتكنولوجيا الأغذية,3,9/26/2018 0:35,9/26/2018 0:35
1336,المجتمع الريفى والارشاد الزراعى,3,9/26/2018 0:35,9/26/2018 0:35
1339,المحاصيل,3,9/26/2018 0:35,9/26/2018 0:35
1342,الوراثة,3,9/26/2018 0:35,9/26/2018 0:35
1345,وقاية النبات,3,9/26/2018 0:35,9/26/2018 0:35
1350,التخطيط الاجتماعى,13,9/26/2018 0:41,9/26/2018 0:41
1352,تنظيم المجتمع,13,9/26/2018 0:41,9/26/2018 0:41
1354,خدمة الجماعة,13,9/26/2018 0:41,9/26/2018 0:41
1356,خدمة الفرد,13,9/26/2018 0:41,9/26/2018 0:41
1358,مجالات الخدمة الاجتماعية,13,9/26/2018 0:41,9/26/2018 0:41
1364,الآثار,15,9/26/2018 0:42,9/26/2018 0:42
1368,الاعلام,15,9/26/2018 0:42,9/26/2018 0:42
1370,التاريخ,15,9/26/2018 0:42,9/26/2018 0:42
1376,الجغرافيا,15,9/26/2018 0:42,9/26/2018 0:42
1379,الفلسفة,15,9/26/2018 0:42,9/26/2018 0:42
1384,اللغات الشرقية وآدابها,15,9/26/2018 0:42,9/26/2018 0:42
1389,اللغة العربية وآدابها,15,9/26/2018 0:42,9/26/2018 0:42
1393,اللغة الفرنسية وآدابها,15,9/26/2018 0:42,9/26/2018 0:42
1398,اللغه الإنجليزية وآدابها,15,9/26/2018 0:42,9/26/2018 0:42
1404,المكتبات والوثائق والمعلومات,15,9/26/2018 0:42,9/26/2018 0:42
1409,علم الاجتماع,15,9/26/2018 0:42,9/26/2018 0:42
1414,علم النفس,15,9/26/2018 0:42,9/26/2018 0:42
1422,الجيولوجيا,1,9/26/2018 0:34,9/26/2018 0:34
1458,الرياضيات,1,9/26/2018 0:34,9/26/2018 0:34
1477,الفيزياء,1,9/26/2018 0:34,9/26/2018 0:34
1503,الكيمياء,1,9/26/2018 0:34,9/26/2018 0:34
1526,النبات,1,9/26/2018 0:35,9/26/2018 0:35
1560,علم الحيوان والحشرات,1,9/26/2018 0:35,9/26/2018 0:35
1617,تمريض الصحة العامة,11,9/26/2018 0:40,9/26/2018 0:40
1618,تمريض باطنى وجراحى,11,9/26/2018 0:40,9/26/2018 0:40
1631,أمراض الدواجن,6,9/26/2018 0:38,9/26/2018 0:38
1639,التشريح والهستولوجيا,6,9/26/2018 0:38,9/26/2018 0:38
1645,التوليد والتناسليات والتلقيح الاصطناعى,6,9/26/2018 0:38,9/26/2018 0:38
1651,الرقابة الصحية على الاغذية,6,9/26/2018 0:38,9/26/2018 0:38
1657,الطب الشرعى والسموم البيطرية,6,9/26/2018 0:38,9/26/2018 0:38
1662,الطفيليات,6,9/26/2018 0:38,9/26/2018 0:38
1665,الفارماكولوجيا,6,9/26/2018 0:38,9/26/2018 0:38
1669,الفسيولوجيا,6,9/26/2018 0:38,9/26/2018 0:38
1671,الكيمياء الحيوية الطبية,6,9/26/2018 0:38,9/26/2018 0:38
1675,الميكربيولوجيا الطبية والمناعة,6,9/26/2018 0:38,9/26/2018 0:38
1679,تغذية الحيوان والتغذية الإكلينيكية,6,9/26/2018 0:38,9/26/2018 0:38
1685,جراحة حيوان,6,9/26/2018 0:38,9/26/2018 0:38
1912,الصيدلانيات,5,9/26/2018 0:37,9/26/2018 0:37
1913,الصيدلة الصناعية,5,9/26/2018 0:37,9/26/2018 0:37
1914,العقاقير,5,9/26/2018 0:37,9/26/2018 0:37
1915,فارماكولوجى,5,9/26/2018 0:37,9/26/2018 0:37
1916,كيمياء تحليلية صيدلية,5,9/26/2018 0:37,9/26/2018 0:37
1917,كيمياء حيوية,5,9/26/2018 0:37,9/26/2018 0:37
1918,كيمياء صيدلية طبية,5,9/26/2018 0:37,9/26/2018 0:37
1919,كيمياء عضوية صيدلية,5,9/26/2018 0:37,9/26/2018 0:37
1920,ميكروبيولوجى,5,9/26/2018 0:37,9/26/2018 0:37
1941,اصول التربية,12,9/26/2018 0:41,9/26/2018 0:41
1942,التربية الخاصة,12,9/26/2018 0:41,9/26/2018 0:41
1943,التربية المقارنة و الإدارة التعليمية,12,9/26/2018 0:41,9/26/2018 0:41
1944,الصحة النفسية,12,9/26/2018 0:41,9/26/2018 0:41
1945,المناهج و طرق التدريس,12,9/26/2018 0:41,9/26/2018 0:41
1957,تربية الطفل,12,9/26/2018 0:41,9/26/2018 0:41
1958,علم النفس التربوي,12,9/26/2018 0:41,9/26/2018 0:41
1964,صحة الحيوان,6,9/26/2018 0:38,9/26/2018 0:38
1976,طب الحيوان,6,9/26/2018 0:38,9/26/2018 0:38
1988,الباثولوجيا والباثولوجيا الإكلينيكية,6,9/26/2018 0:38,9/26/2018 0:38
1994,العلوم التربوية,10,9/26/2018 0:40,9/26/2018 0:40
1995,المناهج وتدريس التربية الرياضية,10,9/26/2018 0:40,9/26/2018 0:40
1996,الادارة الرياضية والترويح,10,9/26/2018 0:40,9/26/2018 0:40
2033,التقنيات الزارعية المتقدمة,205,9/26/2018 0:42,9/26/2018 0:42
2034,العلوم البيئية ومعالجات التلوث,205,9/26/2018 0:42,9/26/2018 0:42
2035,الهندسة الصناعية والادارية,205,9/26/2018 0:42,9/26/2018 0:42
2036,علوم وتكنولوجيا الصناعات الكيميائية والدوائية,205,9/26/2018 0:42,9/26/2018 0:42
2037,علوم وتكنولوجيا المواد وتطبيقاتها,205,9/26/2018 0:42,9/26/2018 0:42
2038,علوم وتكنولوجيا صناعة السكر,205,9/26/2018 0:42,9/26/2018 0:42
2044,أمراض النساء و التوليد,4,9/26/2018 0:36,9/26/2018 0:36
2046,الأشعة التشخيصية,4,9/26/2018 0:36,9/26/2018 0:36
2048,الأمراض الباطنة,4,9/26/2018 0:36,9/26/2018 0:36
2052,الأمراض الجلدية و التناسلية,4,9/26/2018 0:36,9/26/2018 0:36
2054,الأمراض الصدرية,4,9/26/2018 0:36,9/26/2018 0:36
2060,الأمراض العصبية و النفسية,4,9/26/2018 0:36,9/26/2018 0:36
2064,الأنف و الاذن و الحنجرة,4,9/26/2018 0:37,9/26/2018 0:37
2068,الباثولوجيا,4,9/26/2018 0:37,9/26/2018 0:37
2076,التخدير و العناية المركزة,4,9/26/2018 0:37,9/26/2018 0:37
2078,التشريح الآدمي و علم الأجنة,4,9/26/2018 0:37,9/26/2018 0:37
2080,الجراحة,4,9/26/2018 0:37,9/26/2018 0:37
2085,الصحة العامة و طب المجتمع,4,9/26/2018 0:37,9/26/2018 0:37
2087,الطب الشرعى و السموم الإكلينيكية,4,9/26/2018 0:37,9/26/2018 0:37
2090,الطب الطبيعي و الروماتيزم و التأهيل,4,9/26/2018 0:37,9/26/2018 0:37
2092,الطفيليات الطبية,4,9/26/2018 0:37,9/26/2018 0:37
2094,الفارماكولوجيا الطبية,4,9/26/2018 0:37,9/26/2018 0:37
2096,الفسيولوجيا الطبية,4,9/26/2018 0:37,9/26/2018 0:37
2098,الكمياء الحيوية الطبية,4,9/26/2018 0:37,9/26/2018 0:37
2100,الميكروبيولوجيا الطبية و المناعة,4,9/26/2018 0:37,9/26/2018 0:37
2102,الهستولوجيا,4,9/26/2018 0:37,9/26/2018 0:37
2104,جراحة الأوعية الدموية,4,9/26/2018 0:37,9/26/2018 0:37
2106,جراحة التجميل,4,9/26/2018 0:37,9/26/2018 0:37
2108,جراحة العظام,4,9/26/2018 0:37,9/26/2018 0:37
2110,جراحة القلب و الصدر,4,9/26/2018 0:37,9/26/2018 0:37
2112,جراحة المخ و الأعصاب,4,9/26/2018 0:37,9/26/2018 0:37
2114,جراحة المسالك البولية و التناسلية,4,9/26/2018 0:37,9/26/2018 0:37
2116,طب الأطفال,4,9/26/2018 0:37,9/26/2018 0:37
2118,طب الصناعات والصحة المهنية,4,9/26/2018 0:37,9/26/2018 0:37
2120,طب القلب و الأوعية دموية,4,9/26/2018 0:37,9/26/2018 0:37
2122,طب المناطق الحارة و الجهاز الهضمي,4,9/26/2018 0:37,9/26/2018 0:37
2124,طب و جراحة العيون,4,9/26/2018 0:37,9/26/2018 0:37
2127,علاج الأورام و الطب النووي,4,9/26/2018 0:37,9/26/2018 0:37
2133,أصول التربية الرياضية والترويح,10,9/26/2018 0:40,9/26/2018 0:40
2135,الألعاب,10,9/26/2018 0:40,9/26/2018 0:40
2137,الادارة الرياضية والترويح,10,9/26/2018 0:40,9/26/2018 0:40
2139,التدريب الرياضى وعلوم الحركة,10,9/26/2018 0:40,9/26/2018 0:40
2141,التمرينات والجمباز,10,9/26/2018 0:40,9/26/2018 0:40
2143,العلوم التربوية,10,9/26/2018 0:40,9/26/2018 0:40
2145,العلوم التربوية والنفسية الرياضية,10,9/26/2018 0:40,9/26/2018 0:40
2147,المنازلات والرياضات المائية,10,9/26/2018 0:40,9/26/2018 0:40
2149,المناهج وتدريس التربية الرياضية,10,9/26/2018 0:40,9/26/2018 0:40
2151,المناهج وطرق التدريس والتدريب,10,9/26/2018 0:40,9/26/2018 0:40
2153,علوم  الصحة الرياضية,10,9/26/2018 0:40,9/26/2018 0:40
2155,مسابقات الميدان والمضمار,10,9/26/2018 0:40,9/26/2018 0:40
2174,إدارة الأعمال,7,9/26/2018 0:38,9/26/2018 0:38
2175,الإحصاء والرياضة والتأمين,7,9/26/2018 0:38,9/26/2018 0:38
2178,الإقتصاد والمالية العامة,7,9/26/2018 0:38,9/26/2018 0:38
2180,العلوم السياسية والادارة العامة,7,9/26/2018 0:38,9/26/2018 0:38
2182,المحاسبة,7,9/26/2018 0:38,9/26/2018 0:38
2184,اشعة الاورام التشخيصية,18,9/26/2018 0:43,9/26/2018 0:43
2185,الاحصاء الطبى و وبائيات السرطان,18,9/26/2018 0:43,9/26/2018 0:43
2187,الاشعة العلاجية والطب النووى,18,9/26/2018 0:43,9/26/2018 0:43
2190,الباثولوجيا الإكلينيكيية,18,9/26/2018 0:43,9/26/2018 0:43
2193,التخدير والانعاش وعلاج الالم,18,9/26/2018 0:43,9/26/2018 0:43
2196,باثولوجيا الاورام,18,9/26/2018 0:43,9/26/2018 0:43
2198,بيولوجيا الاورام,18,9/26/2018 0:43,9/26/2018 0:43
2203,جراحة الاورام,18,9/26/2018 0:43,9/26/2018 0:43
2205,طب الاورام,18,9/26/2018 0:43,9/26/2018 0:43
2207,طب الاورام الاكلينيكية,18,9/26/2018 0:43,9/26/2018 0:43
2209,طب اورام الاطفال,18,9/26/2018 0:43,9/26/2018 0:43
3168,تكنولوجيا المعلومات,16,9/26/2018 0:42,9/26/2018 0:42
3169,نظم المعلومات,16,9/26/2018 0:42,9/26/2018 0:42
3170,علوم الحاسب,16,9/26/2018 0:42,9/26/2018 0:42
3171,الاقتصاد المنزلي,14,9/26/2018 0:41,9/26/2018 0:41
3172,التربية الفنية,14,9/26/2018 0:41,9/26/2018 0:41
3173,التربية الموسيقية,14,9/26/2018 0:41,9/26/2018 0:41
3272,الفنون,8,9/26/2018 0:38,9/26/2018 0:38
3575,الفنون,8,9/26/2018 0:38,9/26/2018 0:38
3578,تكنولوجيا التعليم,8,9/26/2018 0:38,9/26/2018 0:38
3586,التعليم الصناعي,8,9/26/2018 0:38,9/26/2018 0:38
4296,بيولوجي أساسي - جيولوجي فرعي,8,9/26/2018 0:38,9/26/2018 0:38
4297,جيولوجي أساسي - بيولوجي فرعي,8,9/26/2018 0:38,9/26/2018 0:38
4298,العلوم البيولوجية والجيولوجية والبيئية,8,9/26/2018 0:38,9/26/2018 0:38
4300,رياض الأطفال,8,9/26/2018 0:38,9/26/2018 0:38
4307,برنامج الانتاج النباتي,3,9/26/2018 0:36,9/26/2018 0:36
4310,برنامج وقاية النبات,3,9/26/2018 0:36,9/26/2018 0:36
4314,برنامج علوم الاغذية,3,9/26/2018 0:36,9/26/2018 0:36
4317,برنامج العلوم الاجتماعية والاقتصادية الزراعية,3,9/26/2018 0:36,9/26/2018 0:36
4322,برنامج التكنولوجيا الحيوية,3,9/26/2018 0:36,9/26/2018 0:36
4324,برنامج الاراضي,3,9/26/2018 0:36,9/26/2018 0:36
4356,القسم الخاص ميكانيكا,2,9/26/2018 0:35,9/26/2018 0:35
4357,التصميم الداخلي المعماري,2,9/26/2018 0:35,9/26/2018 0:35
4385,الارشاد السياحى,15,9/26/2018 0:41,9/26/2018 0:41
4481,الكيمياء الطبية,5,9/26/2018 0:37,9/26/2018 0:37
4492,تمريض الأطفال,11,9/26/2018 0:40,9/26/2018 0:40
4493,تمريض النساء والتوليد,11,9/26/2018 0:40,9/26/2018 0:40
4494,التمريض النفسى,11,9/26/2018 0:40,9/26/2018 0:40
4567,بيولوجيا الاورام,18,9/26/2018 0:43,9/26/2018 0:43
4568,باثولوجيا الاورام,18,9/26/2018 0:43,9/26/2018 0:43
4569,العلوم و الرياضيات,12,9/26/2018 0:40,9/26/2018 0:40
4593,قسم الرياضيات - ساعات معتمدة,1,9/26/2018 0:35,9/26/2018 0:35
4594,قسم الفزياء-ساعات معتمدة,1,9/26/2018 0:35,9/26/2018 0:35
4595,قسم الكمياء- ساعات معتمدة,1,9/26/2018 0:35,9/26/2018 0:35
4596,قسم الجيولوجيا - ساعات معتمدة,1,9/26/2018 0:35,9/26/2018 0:35
4597,قسم النبات- ساعات معتمدة,1,9/26/2018 0:35,9/26/2018 0:35
4598,قسم علم الحيوان- ساعات معتمدة,1,9/26/2018 0:35,9/26/2018 0:35
4638,الصيدلة الاكلينيكية,5,9/26/2018 0:37,9/26/2018 0:37
4663,العلوم البيولوجية والجيولوجية والبيئية,12,9/26/2018 0:40,9/26/2018 0:40
4664,رياض الأطفال,12,9/26/2018 0:40,9/26/2018 0:40
4744,التدريب الرياضى,10,9/26/2018 0:39,9/26/2018 0:39
22053,الهندسة المدنية,2,9/26/2018 0:35,9/26/2018 0:35
22054,الهندسة الميكانيكية,2,9/26/2018 0:35,9/26/2018 0:35
22055,الهندسة الكهربائية,2,9/26/2018 0:35,9/26/2018 0:35
22056,هندسة التعدين والفلزات,2,9/26/2018 0:35,9/26/2018 0:35
22057,الهندسة المعمارية,2,9/26/2018 0:35,9/26/2018 0:35
22058,علوم الحاسب,16,9/26/2018 0:42,9/26/2018 0:42
22059,نظم المعلومات,16,9/26/2018 0:42,9/26/2018 0:42
22060,تكنولوجيا المعلومات,16,9/26/2018 0:42,9/26/2018 0:42
22064,الشعبة الهندسية,205,9/26/2018 0:42,9/26/2018 0:42
22065,الشعبة الزراعية,205,9/26/2018 0:42,9/26/2018 0:42
22066,الشعبة الكيميائية,205,9/26/2018 0:42,9/26/2018 0:42
22068,التربية الموسيقية,14,9/26/2018 0:41,9/26/2018 0:41
22069,التربية الفنية,14,9/26/2018 0:41,9/26/2018 0:41
22070,الاقتصاد المنزلي,14,9/26/2018 0:41,9/26/2018 0:41
22072,اللغة العربية وآدابها,15,9/26/2018 0:41,9/26/2018 0:41
22073,اللغة الإنجليزية وآدابها,15,9/26/2018 0:41,9/26/2018 0:41
22074,اللغة الفرنسية وآدابها,15,9/26/2018 0:41,9/26/2018 0:41
22075,المكتبات والوثائق والمعلومات,15,9/26/2018 0:41,9/26/2018 0:41
22076,الجغرافيا,15,9/26/2018 0:41,9/26/2018 0:41
22077,التاريخ,15,9/26/2018 0:41,9/26/2018 0:41
22078,علم النفس,15,9/26/2018 0:41,9/26/2018 0:41
22079,الفلسفة,15,9/26/2018 0:41,9/26/2018 0:41
22080,الاجتماع,15,9/26/2018 0:41,9/26/2018 0:41
22081,الآثار,15,9/26/2018 0:41,9/26/2018 0:41
22082,اللغات الشرقية وآدابها,15,9/26/2018 0:41,9/26/2018 0:41
22083,الإعلام,15,9/26/2018 0:41,9/26/2018 0:41
22084,المحاسبة,7,9/26/2018 0:38,9/26/2018 0:38
22085,الاقتصاد والمالية العامة,7,9/26/2018 0:38,9/26/2018 0:38
22086,الإحصاء والرياضة والتأمين,7,9/26/2018 0:38,9/26/2018 0:38
22087,العلوم السياسية والإدارة العامة,7,9/26/2018 0:38,9/26/2018 0:38
22088,إدارة الأعمال,7,9/26/2018 0:38,9/26/2018 0:38
22089,علم النفس,12,9/26/2018 0:40,9/26/2018 0:40
22090,تربية الطفل,12,9/26/2018 0:40,9/26/2018 0:40
22091,الدراسات الاجتماعيه,12,9/26/2018 0:40,9/26/2018 0:40
22092,اللغة الإنجليزية,12,9/26/2018 0:40,9/26/2018 0:40
22095,الاراضي والمياة,3,9/26/2018 0:35,9/26/2018 0:35
22096,الاقتصاد الزراعي,3,9/26/2018 0:35,9/26/2018 0:35
22097,الالبان,3,9/26/2018 0:35,9/26/2018 0:35
22098,أمراض النبات,3,9/26/2018 0:36,9/26/2018 0:36
22099,الانتاج الحيواني والدواجن,3,9/26/2018 0:36,9/26/2018 0:36
22100,البساتين,3,9/26/2018 0:36,9/26/2018 0:36
22101,علوم وتكنولوجيا الاغذية,3,9/26/2018 0:36,9/26/2018 0:36
22102,المجتمع الريفى والارشاد الزراعى,3,9/26/2018 0:36,9/26/2018 0:36
22103,المحاصيل,3,9/26/2018 0:36,9/26/2018 0:36
22104,الوراثة,3,9/26/2018 0:36,9/26/2018 0:36
22105,وقاية النبات,3,9/26/2018 0:36,9/26/2018 0:36
22108,قسم بيولوجيا الفم والوجه والفكين,1053,9/26/2018 0:43,9/26/2018 0:43
22110,قسم باثولوجيا الفم والوجه والفكين,1053,9/26/2018 0:43,9/26/2018 0:43
22111,قسم المواد الحيوية لطب الاسنان,1053,9/26/2018 0:43,9/26/2018 0:43
22112,قسم الاستعاضة الصناعية للفم والوجه والفكين,1053,9/26/2018 0:43,9/26/2018 0:43
22113,قسم الاستعاضة السنية المثبته,1053,9/26/2018 0:43,9/26/2018 0:43
22114,قسم العلاج التحفظى للاسنان,1053,9/26/2018 0:43,9/26/2018 0:43
22115,قسم جراحة الفم والوجه والفكين,1053,9/26/2018 0:43,9/26/2018 0:43
22116,قسم طب الفم وعلاج اللثة والتشخيص,1053,9/26/2018 0:43,9/26/2018 0:43
22117,قسم طب اسنان الاطفال والصحة العامة للفم والاسنان,1053,9/26/2018 0:43,9/26/2018 0:43
22119,قسم تقويم الاسنان,1053,9/26/2018 0:43,9/26/2018 0:43
22120,قسم علاج الجذور,1053,9/26/2018 0:43,9/26/2018 0:43
22121,قسم اشعة الفم والوجه والفكين,1053,9/26/2018 0:43,9/26/2018 0:43
72084,جيولوجي أساسي بيولوجي فرعي,12,9/26/2018 0:40,9/26/2018 0:40
72085,بيولوجي أساسي جيولوجي فرعي,12,9/26/2018 0:40,9/26/2018 0:40
72086,علوم وتكنولوجيا اللب والورق والألواح الخشبية,205,9/26/2018 0:42,9/26/2018 0:42
72087,علوم وتكنولوجيا التخمرات الصناعية,205,9/26/2018 0:42,9/26/2018 0:42
72094,الخضر,3,9/26/2018 0:35,9/26/2018 0:35
72095,الفاكهة,3,9/26/2018 0:35,9/26/2018 0:35
72096,الزينة,3,9/26/2018 0:35,9/26/2018 0:35
72097,الانتاج الحيوانى,3,9/26/2018 0:35,9/26/2018 0:35
72098,إنتاج الدواجن,3,9/26/2018 0:35,9/26/2018 0:35
72100,الوسائط المتعددة,16,9/26/2018 0:42,9/26/2018 0:42
72107,الدراسات الاسلامية,15,9/26/2018 0:41,9/26/2018 0:41
72108,الترجمة الانجليزية,15,9/26/2018 0:42,9/26/2018 0:42
72132,الصيدلة الاكلينيكية,5,9/26/2018 0:37,9/26/2018 0:37
72154,الطفيليات,6,9/26/2018 0:37,9/26/2018 0:37
72155,الميكربيولوجيا الطبية والمناعة,6,9/26/2018 0:38,9/26/2018 0:38
72156,الفارماكولوجيا,6,9/26/2018 0:38,9/26/2018 0:38
72157,الكيمياء الحيوية الطبية,6,9/26/2018 0:38,9/26/2018 0:38
72160,الكيمياء الحيوية,5,9/26/2018 0:37,9/26/2018 0:37
72161,علم الأدوية والسموم,5,9/26/2018 0:37,9/26/2018 0:37
72162,الميكروبيولوجيا والمناعة,5,9/26/2018 0:37,9/26/2018 0:37
72163,قسم الدراسات الاسلامية,15,9/26/2018 0:41,9/26/2018 0:41
72191,عمارة,1092,9/26/2018 0:43,9/26/2018 0:43
72192,ديكور,1092,9/26/2018 0:43,9/26/2018 0:43
72195,علوم انشائية,1092,9/26/2018 0:43,9/26/2018 0:43
72210,برنامج هندسة التشييد وادارة المشروعات,2,9/26/2018 0:35,9/26/2018 0:35
72213,فنون,1092,9/26/2018 0:43,9/26/2018 0:43
72223,الوسائط المتعددة,16,9/26/2018 0:42,9/26/2018 0:42
72224,شعبة عامة,16,9/26/2018 0:42,9/26/2018 0:42
72226,الجودة والاعتماد فى التعليم,8,9/26/2018 0:39,9/26/2018 0:39
77098,الجودة والاعتماد فى التعليم,12,9/26/2018 0:40,9/26/2018 0:40
122167,علوم نفسية,1094,9/26/2018 0:43,9/26/2018 0:43
122168,علوم تربوية,1094,9/26/2018 0:43,9/26/2018 0:43
122170,برنامج هندسة الميكاترونيات والروبوتات,2,9/26/2018 0:35,9/26/2018 0:35
122171,ديكور,1092,9/26/2018 0:43,9/26/2018 0:43
122172,نحت,1092,9/26/2018 0:43,9/26/2018 0:43
122173,التصوير,1092,9/26/2018 0:43,9/26/2018 0:43
122174,الجرافيك,1092,9/26/2018 0:43,9/26/2018 0:43
122175,عمارة,1092,9/26/2018 0:43,9/26/2018 0:43
122176,برنامج هندسة العمارة الداخلية,2,9/26/2018 0:35,9/26/2018 0:35
122177,الانتاج الحيوانى,3,9/26/2018 0:36,9/26/2018 0:36
122179,انتاج الدواجن,3,9/26/2018 0:36,9/26/2018 0:36
122182,الخضر,3,9/26/2018 0:36,9/26/2018 0:36
122183,الفاكهة,3,9/26/2018 0:36,9/26/2018 0:36
122184,الخضر,3,9/26/2018 0:36,9/26/2018 0:36
122188,الفاكهة,3,9/26/2018 0:36,9/26/2018 0:36
122189,الزينة,3,9/26/2018 0:36,9/26/2018 0:36
122200,علوم اساسية,1094,9/26/2018 0:43,9/26/2018 0:43
122201,الكيمياء الصناعية والتطبيقية,1,9/26/2018 0:35,9/26/2018 0:35
122204,نظم المعلومات الحيوية-خاص,16,9/26/2018 0:42,9/26/2018 0:42
122205,هندسة البرمجيات - برنامج خاص,16,9/26/2018 0:42,9/26/2018 0:42
122206,الدراسات القانونية باللغة الانجليزية - برنامج خاص,9,9/26/2018 0:39,9/26/2018 0:39
122207,الحاسب الآلى,8,9/26/2018 0:38,9/26/2018 0:38
122208,الرياضيات باللغة الانجليزية - برنامج خاص,8,9/26/2018 0:38,9/26/2018 0:38
122209,اللغة الانجليزية لمعلمى لمدارسى الدولية - برنامج خاص,8,9/26/2018 0:39,9/26/2018 0:39
122210,العلوم باللغة الانجليزية - برنامج خاص,8,9/26/2018 0:39,9/26/2018 0:39
122212,لائحة البكالوريوس تمريض 2008,11,9/26/2018 0:40,9/26/2018 0:40
122213,لائحة كلية التمريض 2016,11,9/26/2018 0:40,9/26/2018 0:40
122217,العمارة,1092,9/26/2018 0:43,9/26/2018 0:43
122218,الديكور,1092,9/26/2018 0:43,9/26/2018 0:43
122219,التصوير,1092,9/26/2018 0:43,9/26/2018 0:43
122220,الجرافيك,1092,9/26/2018 0:43,9/26/2018 0:43
122221,النحت,1092,9/26/2018 0:43,9/26/2018 0:43
122222,تاريخ الفن,1092,9/26/2018 0:43,9/26/2018 0:43
122223,الكيمياء الدوائية,5,9/26/2018 0:37,9/26/2018 0:37
122224,العقاقير,5,9/26/2018 0:37,9/26/2018 0:37
122225,الكيمياء العضوية الصيدلية,5,9/26/2018 0:37,9/26/2018 0:37
122226,الكيمياء التحليلية الصيدلية,5,9/26/2018 0:37,9/26/2018 0:37
122227,الصيدلانيات,5,9/26/2018 0:37,9/26/2018 0:37
122228,الصيدلة الصناعية,5,9/26/2018 0:37,9/26/2018 0:37
122229,الكيمياء الحيوية,5,9/26/2018 0:37,9/26/2018 0:37
122230,الميكروبيولوجيا والمناعة,5,9/26/2018 0:37,9/26/2018 0:37
122231,علم الادوية والسموم,5,9/26/2018 0:37,9/26/2018 0:37
122232,الصيدلة الاكلينيكية,5,9/26/2018 0:37,9/26/2018 0:37
122235,ماجستيرفي الترجمة الانجليزية,15,9/26/2018 0:42,9/26/2018 0:42
122237,ماجستير في الترجمة الآنجليزية,15,9/26/2018 0:42,9/26/2018 0:42
